x1,x2,x3,x4,Classe
6.5,2.8,4.6,1.5,Versicolor
6.1,2.8,4.7,1.2,Versicolor
5.1,3.3,1.7,0.5,Setosa
6.1,2.8,4,1.3,Versicolor
4.4,3,1.3,0.2,Setosa
5.6,2.7,4.2,1.3,Versicolor
5.5,2.4,3.7,1,Versicolor
5.1,3.3,1.7,0.5,Setosa
6.7,3.1,5.6,2.4,Virginica
5.1,2.5,3,1.1,Versicolor
6.6,3,4.4,1.4,Versicolor
6.6,2.9,4.6,1.3,Versicolor
5.4,3.9,1.3,0.4,Setosa
7.7,3.8,6.7,2.2,Virginica
6.2,2.2,4.5,1.5,Versicolor
5.7,2.5,5,2,Virginica
5.5,2.5,4,1.3,Versicolor
6.7,3.3,5.7,2.1,Virginica
4.7,3.2,1.3,0.2,Setosa
5.4,3.4,1.5,0.4,Setosa
